{
    "prepare_queue": {
        "installed": [],
        "uninstalled": []
    },
    "config_munge": {
        "files": {}
    },
    "installed_plugins": {
        "com.ionic.keyboard": {},
        "org.apache.cordova.camera": {}
    },
    "dependent_plugins": {}
}